%YAML 1.1
%TAG !u! tag:unity3d.com,2011:
--- !u!64 &7521270486144192784
MeshCollider:
  m_ObjectHideFlags: 0
  m_CorrespondingSourceObject: {fileID: 0}
  m_PrefabInstance: {fileID: 0}
  m_PrefabAsset: {fileID: 0}
  m_GameObject: {fileID: 6304667593000310027}
  m_Material: {fileID: 0}
  m_IsTrigger: 0
  m_Enabled: 1
  serializedVersion: 4
  m_Convex: 0
  m_CookingOptions: 30
  m_Mesh: {fileID: 8780740935409272385, guid: c94fc3223ce413341b74763217b50376, type: 3}
--- !u!1001 &3085515325318544104
PrefabInstance:
  m_ObjectHideFlags: 0
  serializedVersion: 2
  m_Modification:
    m_TransformParent: {fileID: 0}
    m_Modifications:
    - target: {fileID: -8679921383154817045, guid: c94fc3223ce413341b74763217b50376,
        type: 3}
      propertyPath: m_RootOrder
      value: 0
      objectReference: {fileID: 0}
    - target: {fileID: -8679921383154817045, guid: c94fc3223ce413341b74763217b50376,
        type: 3}
      propertyPath: m_LocalPosition.x
      value: 0
      objectReference: {fileID: 0}
    - target: {fileID: -8679921383154817045, guid: c94fc3223ce413341b74763217b50376,
        type: 3}
      propertyPath: m_LocalPosition.y
      value: 0
      objectReference: {fileID: 0}
    - target: {fileID: -8679921383154817045, guid: c94fc3223ce413341b74763217b50376,
        type: 3}
      propertyPath: m_LocalPosition.z
      value: 0
      objectReference: {fileID: 0}
    - target: {fileID: -8679921383154817045, guid: c94fc3223ce413341b74763217b50376,
        type: 3}
      propertyPath: m_LocalRotation.w
      value: 1
      objectReference: {fileID: 0}
    - target: {fileID: -8679921383154817045, guid: c94fc3223ce413341b74763217b50376,
        type: 3}
      propertyPath: m_LocalRotation.x
      value: 0
      objectReference: {fileID: 0}
    - target: {fileID: -8679921383154817045, guid: c94fc3223ce413341b74763217b50376,
        type: 3}
      propertyPath: m_LocalRotation.y
      value: 0
      objectReference: {fileID: 0}
    - target: {fileID: -8679921383154817045, guid: c94fc3223ce413341b74763217b50376,
        type: 3}
      propertyPath: m_LocalRotation.z
      value: 0
      objectReference: {fileID: 0}
    - target: {fileID: -8679921383154817045, guid: c94fc3223ce413341b74763217b50376,
        type: 3}
      propertyPath: m_LocalEulerAnglesHint.x
      value: 0
      objectReference: {fileID: 0}
    - target: {fileID: -8679921383154817045, guid: c94fc3223ce413341b74763217b50376,
        type: 3}
      propertyPath: m_LocalEulerAnglesHint.y
      value: 0
      objectReference: {fileID: 0}
    - target: {fileID: -8679921383154817045, guid: c94fc3223ce413341b74763217b50376,
        type: 3}
      propertyPath: m_LocalEulerAnglesHint.z
      value: 0
      objectReference: {fileID: 0}
    - target: {fileID: 919132149155446097, guid: c94fc3223ce413341b74763217b50376,
        type: 3}
      propertyPath: m_Name
      value: Foundation_A_03_x2
      objectReference: {fileID: 0}
    m_RemovedComponents:
    - {fileID: 4073554214961421708, guid: c94fc3223ce413341b74763217b50376, type: 3}
    - {fileID: 1245171370583712091, guid: c94fc3223ce413341b74763217b50376, type: 3}
    - {fileID: -5754084199372789682, guid: c94fc3223ce413341b74763217b50376, type: 3}
    - {fileID: -7511558181221131132, guid: c94fc3223ce413341b74763217b50376, type: 3}
  m_SourcePrefab: {fileID: 100100000, guid: c94fc3223ce413341b74763217b50376, type: 3}
--- !u!1 &6304667593000310027 stripped
GameObject:
  m_CorrespondingSourceObject: {fileID: 9056560809233215459, guid: c94fc3223ce413341b74763217b50376,
    type: 3}
  m_PrefabInstance: {fileID: 3085515325318544104}
  m_PrefabAsset: {fileID: 0}
