%YAML 1.1
%TAG !u! tag:unity3d.com,2011:
--- !u!64 &1835344960341206964
MeshCollider:
  m_ObjectHideFlags: 0
  m_CorrespondingSourceObject: {fileID: 0}
  m_PrefabInstance: {fileID: 0}
  m_PrefabAsset: {fileID: 0}
  m_GameObject: {fileID: 52223453471434220}
  m_Material: {fileID: 0}
  m_IsTrigger: 0
  m_Enabled: 1
  serializedVersion: 4
  m_Convex: 0
  m_CookingOptions: 30
  m_Mesh: {fileID: -2309014066171650779, guid: 5c1c300b3cdc81345af260918fa0fd64, type: 3}
--- !u!1001 &8233633343509209210
PrefabInstance:
  m_ObjectHideFlags: 0
  serializedVersion: 2
  m_Modification:
    m_TransformParent: {fileID: 0}
    m_Modifications:
    - target: {fileID: -8679921383154817045, guid: 5c1c300b3cdc81345af260918fa0fd64,
        type: 3}
      propertyPath: m_RootOrder
      value: 0
      objectReference: {fileID: 0}
    - target: {fileID: -8679921383154817045, guid: 5c1c300b3cdc81345af260918fa0fd64,
        type: 3}
      propertyPath: m_LocalPosition.x
      value: 0
      objectReference: {fileID: 0}
    - target: {fileID: -8679921383154817045, guid: 5c1c300b3cdc81345af260918fa0fd64,
        type: 3}
      propertyPath: m_LocalPosition.y
      value: 0
      objectReference: {fileID: 0}
    - target: {fileID: -8679921383154817045, guid: 5c1c300b3cdc81345af260918fa0fd64,
        type: 3}
      propertyPath: m_LocalPosition.z
      value: 0
      objectReference: {fileID: 0}
    - target: {fileID: -8679921383154817045, guid: 5c1c300b3cdc81345af260918fa0fd64,
        type: 3}
      propertyPath: m_LocalRotation.w
      value: 1
      objectReference: {fileID: 0}
    - target: {fileID: -8679921383154817045, guid: 5c1c300b3cdc81345af260918fa0fd64,
        type: 3}
      propertyPath: m_LocalRotation.x
      value: 0
      objectReference: {fileID: 0}
    - target: {fileID: -8679921383154817045, guid: 5c1c300b3cdc81345af260918fa0fd64,
        type: 3}
      propertyPath: m_LocalRotation.y
      value: 0
      objectReference: {fileID: 0}
    - target: {fileID: -8679921383154817045, guid: 5c1c300b3cdc81345af260918fa0fd64,
        type: 3}
      propertyPath: m_LocalRotation.z
      value: 0
      objectReference: {fileID: 0}
    - target: {fileID: -8679921383154817045, guid: 5c1c300b3cdc81345af260918fa0fd64,
        type: 3}
      propertyPath: m_LocalEulerAnglesHint.x
      value: 0
      objectReference: {fileID: 0}
    - target: {fileID: -8679921383154817045, guid: 5c1c300b3cdc81345af260918fa0fd64,
        type: 3}
      propertyPath: m_LocalEulerAnglesHint.y
      value: 0
      objectReference: {fileID: 0}
    - target: {fileID: -8679921383154817045, guid: 5c1c300b3cdc81345af260918fa0fd64,
        type: 3}
      propertyPath: m_LocalEulerAnglesHint.z
      value: 0
      objectReference: {fileID: 0}
    - target: {fileID: 919132149155446097, guid: 5c1c300b3cdc81345af260918fa0fd64,
        type: 3}
      propertyPath: m_Name
      value: Foundation_A_03_X8
      objectReference: {fileID: 0}
    m_RemovedComponents:
    - {fileID: 9045201161852995335, guid: 5c1c300b3cdc81345af260918fa0fd64, type: 3}
    - {fileID: 4878391088085987459, guid: 5c1c300b3cdc81345af260918fa0fd64, type: 3}
    - {fileID: -5754084199372789682, guid: 5c1c300b3cdc81345af260918fa0fd64, type: 3}
    - {fileID: -7511558181221131132, guid: 5c1c300b3cdc81345af260918fa0fd64, type: 3}
  m_SourcePrefab: {fileID: 100100000, guid: 5c1c300b3cdc81345af260918fa0fd64, type: 3}
--- !u!1 &52223453471434220 stripped
GameObject:
  m_CorrespondingSourceObject: {fileID: -938379217912576618, guid: 5c1c300b3cdc81345af260918fa0fd64,
    type: 3}
  m_PrefabInstance: {fileID: 8233633343509209210}
  m_PrefabAsset: {fileID: 0}
