%YAML 1.1
%TAG !u! tag:unity3d.com,2011:
--- !u!64 &8654006654817915354
MeshCollider:
  m_ObjectHideFlags: 0
  m_CorrespondingSourceObject: {fileID: 0}
  m_PrefabInstance: {fileID: 0}
  m_PrefabAsset: {fileID: 0}
  m_GameObject: {fileID: 954251628271666455}
  m_Material: {fileID: 0}
  m_IsTrigger: 0
  m_Enabled: 1
  serializedVersion: 4
  m_Convex: 0
  m_CookingOptions: 30
  m_Mesh: {fileID: -8778502511690563602, guid: 640bc93103138f64ba760df2061f413a, type: 3}
--- !u!1001 &5007237905804227016
PrefabInstance:
  m_ObjectHideFlags: 0
  serializedVersion: 2
  m_Modification:
    m_TransformParent: {fileID: 0}
    m_Modifications:
    - target: {fileID: -8679921383154817045, guid: 640bc93103138f64ba760df2061f413a,
        type: 3}
      propertyPath: m_RootOrder
      value: 0
      objectReference: {fileID: 0}
    - target: {fileID: -8679921383154817045, guid: 640bc93103138f64ba760df2061f413a,
        type: 3}
      propertyPath: m_LocalPosition.x
      value: 0
      objectReference: {fileID: 0}
    - target: {fileID: -8679921383154817045, guid: 640bc93103138f64ba760df2061f413a,
        type: 3}
      propertyPath: m_LocalPosition.y
      value: 0
      objectReference: {fileID: 0}
    - target: {fileID: -8679921383154817045, guid: 640bc93103138f64ba760df2061f413a,
        type: 3}
      propertyPath: m_LocalPosition.z
      value: 0
      objectReference: {fileID: 0}
    - target: {fileID: -8679921383154817045, guid: 640bc93103138f64ba760df2061f413a,
        type: 3}
      propertyPath: m_LocalRotation.w
      value: 1
      objectReference: {fileID: 0}
    - target: {fileID: -8679921383154817045, guid: 640bc93103138f64ba760df2061f413a,
        type: 3}
      propertyPath: m_LocalRotation.x
      value: 0
      objectReference: {fileID: 0}
    - target: {fileID: -8679921383154817045, guid: 640bc93103138f64ba760df2061f413a,
        type: 3}
      propertyPath: m_LocalRotation.y
      value: 0
      objectReference: {fileID: 0}
    - target: {fileID: -8679921383154817045, guid: 640bc93103138f64ba760df2061f413a,
        type: 3}
      propertyPath: m_LocalRotation.z
      value: 0
      objectReference: {fileID: 0}
    - target: {fileID: -8679921383154817045, guid: 640bc93103138f64ba760df2061f413a,
        type: 3}
      propertyPath: m_LocalEulerAnglesHint.x
      value: 0
      objectReference: {fileID: 0}
    - target: {fileID: -8679921383154817045, guid: 640bc93103138f64ba760df2061f413a,
        type: 3}
      propertyPath: m_LocalEulerAnglesHint.y
      value: 0
      objectReference: {fileID: 0}
    - target: {fileID: -8679921383154817045, guid: 640bc93103138f64ba760df2061f413a,
        type: 3}
      propertyPath: m_LocalEulerAnglesHint.z
      value: 0
      objectReference: {fileID: 0}
    - target: {fileID: 919132149155446097, guid: 640bc93103138f64ba760df2061f413a,
        type: 3}
      propertyPath: m_Name
      value: Foundation_A_02_x2_CornerA
      objectReference: {fileID: 0}
    m_RemovedComponents:
    - {fileID: -6383718121508887417, guid: 640bc93103138f64ba760df2061f413a, type: 3}
    - {fileID: 7340000432243333358, guid: 640bc93103138f64ba760df2061f413a, type: 3}
    - {fileID: -5754084199372789682, guid: 640bc93103138f64ba760df2061f413a, type: 3}
    - {fileID: -7511558181221131132, guid: 640bc93103138f64ba760df2061f413a, type: 3}
  m_SourcePrefab: {fileID: 100100000, guid: 640bc93103138f64ba760df2061f413a, type: 3}
--- !u!1 &954251628271666455 stripped
GameObject:
  m_CorrespondingSourceObject: {fileID: -4016253655363848993, guid: 640bc93103138f64ba760df2061f413a,
    type: 3}
  m_PrefabInstance: {fileID: 5007237905804227016}
  m_PrefabAsset: {fileID: 0}
