%YAML 1.1
%TAG !u! tag:unity3d.com,2011:
--- !u!136 &4038268611512087682
CapsuleCollider:
  m_ObjectHideFlags: 0
  m_CorrespondingSourceObject: {fileID: 0}
  m_PrefabInstance: {fileID: 0}
  m_PrefabAsset: {fileID: 0}
  m_GameObject: {fileID: 2430348638922141027}
  m_Material: {fileID: 0}
  m_IsTrigger: 0
  m_Enabled: 1
  m_Radius: 0.15
  m_Height: 0.5198953
  m_Direction: 2
  m_Center: {x: -0.05, y: -0.15, z: 0.33}
--- !u!1001 &3277280103847153714
PrefabInstance:
  m_ObjectHideFlags: 0
  serializedVersion: 2
  m_Modification:
    m_TransformParent: {fileID: 0}
    m_Modifications:
    - target: {fileID: -8679921383154817045, guid: 9c608f29bf3c92545932a4b7fc27a207,
        type: 3}
      propertyPath: m_RootOrder
      value: 0
      objectReference: {fileID: 0}
    - target: {fileID: -8679921383154817045, guid: 9c608f29bf3c92545932a4b7fc27a207,
        type: 3}
      propertyPath: m_LocalPosition.x
      value: 0
      objectReference: {fileID: 0}
    - target: {fileID: -8679921383154817045, guid: 9c608f29bf3c92545932a4b7fc27a207,
        type: 3}
      propertyPath: m_LocalPosition.y
      value: 0
      objectReference: {fileID: 0}
    - target: {fileID: -8679921383154817045, guid: 9c608f29bf3c92545932a4b7fc27a207,
        type: 3}
      propertyPath: m_LocalPosition.z
      value: 0
      objectReference: {fileID: 0}
    - target: {fileID: -8679921383154817045, guid: 9c608f29bf3c92545932a4b7fc27a207,
        type: 3}
      propertyPath: m_LocalRotation.w
      value: 1
      objectReference: {fileID: 0}
    - target: {fileID: -8679921383154817045, guid: 9c608f29bf3c92545932a4b7fc27a207,
        type: 3}
      propertyPath: m_LocalRotation.x
      value: 0
      objectReference: {fileID: 0}
    - target: {fileID: -8679921383154817045, guid: 9c608f29bf3c92545932a4b7fc27a207,
        type: 3}
      propertyPath: m_LocalRotation.y
      value: 0
      objectReference: {fileID: 0}
    - target: {fileID: -8679921383154817045, guid: 9c608f29bf3c92545932a4b7fc27a207,
        type: 3}
      propertyPath: m_LocalRotation.z
      value: 0
      objectReference: {fileID: 0}
    - target: {fileID: -8679921383154817045, guid: 9c608f29bf3c92545932a4b7fc27a207,
        type: 3}
      propertyPath: m_LocalEulerAnglesHint.x
      value: 0
      objectReference: {fileID: 0}
    - target: {fileID: -8679921383154817045, guid: 9c608f29bf3c92545932a4b7fc27a207,
        type: 3}
      propertyPath: m_LocalEulerAnglesHint.y
      value: 0
      objectReference: {fileID: 0}
    - target: {fileID: -8679921383154817045, guid: 9c608f29bf3c92545932a4b7fc27a207,
        type: 3}
      propertyPath: m_LocalEulerAnglesHint.z
      value: 0
      objectReference: {fileID: 0}
    - target: {fileID: 919132149155446097, guid: 9c608f29bf3c92545932a4b7fc27a207,
        type: 3}
      propertyPath: m_Name
      value: Wisteria_A_Leaves_01
      objectReference: {fileID: 0}
    m_RemovedComponents: []
  m_SourcePrefab: {fileID: 100100000, guid: 9c608f29bf3c92545932a4b7fc27a207, type: 3}
--- !u!1 &2430348638922141027 stripped
GameObject:
  m_CorrespondingSourceObject: {fileID: 919132149155446097, guid: 9c608f29bf3c92545932a4b7fc27a207,
    type: 3}
  m_PrefabInstance: {fileID: 3277280103847153714}
  m_PrefabAsset: {fileID: 0}
